site_name UCSD

domain optiputer.net

site_project PRP
site_project Nautilus

city San Diego

region CA

country US

zip_code 92093
latitude 32.8801
longitude -117.2340

check_interval          3600       # In seconds

allow_internal_addresses     0
autodiscover_tests_url https://k8s-gpu-02.calit2.optiputer.net:9443/pscheduler
disable_ipv4_reverse_lookup 1

<administrator>
    name      Dmitry Mishin
    email     dmishin@ucsd.edu
</administrator>

<service_template local_latency_service>
    autodiscover_addresses   1
</service_template>

<service_template local_bandwidth_service>
    autodiscover_addresses   1
</service_template>

<service_template local_traceroute_service>
    autodiscover_addresses   1
</service_template>

<service_template local_web_service>
    autodiscover_addresses   1
</service_template>

## List of services to register
<site>
    <host>
        is_local                   1
        autodiscover               1
        autodiscover_interfaces    1

        host_name k8s-gpu-02.calit2.optiputer.net

        <service>
            inherits local_latency_service
            type     owamp
        </service>
        <service>
            inherits local_latency_service
            type     twamp
        </service>
        <service>
            inherits local_traceroute_service
            type     traceroute
        </service>
        <service>
            inherits local_web_service
            type pscheduler
            https_port 9443
            url_path /pscheduler
            service_version pscheduler-1.0
            autodiscover_tests 1
            autodiscover_tools 1
        </service>
    </host>
</site>
